^C:\USERS\EDOARDO\SOURCE\REPOS\UTILITIES\PCH.CPP
C:\USERS\EDOARDO\SOURCE\REPOS\UTILITIES\RELEASE\UTILITIES.PCH
C:\USERS\EDOARDO\SOURCE\REPOS\UTILITIES\RELEASE\VC142.PDB
C:\USERS\EDOARDO\SOURCE\REPOS\UTILITIES\RELEASE\PCH.OBJ
^C:\USERS\EDOARDO\SOURCE\REPOS\UTILITIES\DLLMAIN.CPP|C:\USERS\EDOARDO\SOURCE\REPOS\UTILITIES\UTILITIES.CPP
C:\USERS\EDOARDO\SOURCE\REPOS\UTILITIES\RELEASE\VC142.PDB
C:\USERS\EDOARDO\SOURCE\REPOS\UTILITIES\RELEASE\UTILITIES.OBJ
C:\USERS\EDOARDO\SOURCE\REPOS\UTILITIES\RELEASE\DLLMAIN.OBJ
^C:\USERS\EDOARDO\SOURCE\REPOS\UTILITIES\DLLMAIN.CPP
C:\USERS\EDOARDO\SOURCE\REPOS\UTILITIES\RELEASE\VC142.PDB
^C:\USERS\EDOARDO\SOURCE\REPOS\UTILITIES\UTILITIES.CPP
C:\USERS\EDOARDO\SOURCE\REPOS\UTILITIES\RELEASE\VC142.PDB
C:\USERS\EDOARDO\SOURCE\REPOS\UTILITIES\RELEASE\UTILITIES.OBJ
