#Command: "C:\Program Files (x86)\Microsoft Visual Studio\2019\Community\VC\Tools\MSVC\14.25.28610\bin\HostX86\x86\link.exe" /ERRORREPORT:PROMPT @C:\Users\edoardo\AppData\Local\Temp\tmp022d51c9c3964a849d01132a16fd8161.rsp
^C:\USERS\EDOARDO\SOURCE\REPOS\UTILITIES\RELEASE\DLLMAIN.OBJ|C:\USERS\EDOARDO\SOURCE\REPOS\UTILITIES\RELEASE\PCH.OBJ|C:\USERS\EDOARDO\SOURCE\REPOS\UTILITIES\RELEASE\UTILITIES.OBJ
C:\USERS\EDOARDO\APPDATA\LOCAL\TEMP\LNK{B341BB7A-F110-4E66-A6ED-DBCDF8052FF5}.TMP
#Command: "C:\Program Files (x86)\Microsoft Visual Studio\2019\Community\VC\Tools\MSVC\14.25.28610\bin\HostX86\x86\link.exe" /ERRORREPORT:PROMPT @C:\Users\edoardo\AppData\Local\Temp\tmp7cfc5e814ca34e96986dbf891d770b81.rsp
^C:\USERS\EDOARDO\SOURCE\REPOS\UTILITIES\RELEASE\DLLMAIN.OBJ|C:\USERS\EDOARDO\SOURCE\REPOS\UTILITIES\RELEASE\PCH.OBJ|C:\USERS\EDOARDO\SOURCE\REPOS\UTILITIES\RELEASE\UTILITIES.OBJ
C:\USERS\EDOARDO\APPDATA\LOCAL\TEMP\LNK{29D80A53-A377-45F8-AF36-F1E25C24E2D2}.TMP
#Command: "C:\Program Files (x86)\Microsoft Visual Studio\2019\Community\VC\Tools\MSVC\14.25.28610\bin\HostX86\x86\link.exe" /ERRORREPORT:PROMPT @C:\Users\edoardo\AppData\Local\Temp\tmp00801aa746e54c8c8b6f1b1e60e7dfca.rsp
^C:\USERS\EDOARDO\SOURCE\REPOS\UTILITIES\RELEASE\DLLMAIN.OBJ|C:\USERS\EDOARDO\SOURCE\REPOS\UTILITIES\RELEASE\PCH.OBJ|C:\USERS\EDOARDO\SOURCE\REPOS\UTILITIES\RELEASE\UTILITIES.OBJ
C:\USERS\EDOARDO\APPDATA\LOCAL\TEMP\LNK{602D3872-57E5-44A3-81FA-7D9825D9A040}.TMP
#Command: "C:\Program Files (x86)\Microsoft Visual Studio\2019\Community\VC\Tools\MSVC\14.25.28610\bin\HostX86\x86\link.exe" /ERRORREPORT:PROMPT @C:\Users\edoardo\AppData\Local\Temp\tmp7926493362524ca2a28a28ff898e52a9.rsp
^C:\USERS\EDOARDO\SOURCE\REPOS\UTILITIES\RELEASE\DLLMAIN.OBJ|C:\USERS\EDOARDO\SOURCE\REPOS\UTILITIES\RELEASE\PCH.OBJ|C:\USERS\EDOARDO\SOURCE\REPOS\UTILITIES\RELEASE\UTILITIES.OBJ
C:\USERS\EDOARDO\APPDATA\LOCAL\TEMP\LNK{AFFAE1FD-324B-4F50-84D0-2B467A22C8DE}.TMP
